[32mINFO    [0m root:logger.py:10 REQUEST METHOD: GET
[32mINFO    [0m root:logger.py:11 REQUEST URL: https://reqres.in/api/users/
[32mINFO    [0m root:logger.py:12 REQUEST HEADERS: {'User-Agent': 'python-requests/2.28.2', 'Accept-Encoding': 'gzip, deflate', 'Accept': '*/*', 'Connection': 'keep-alive', 'Content-Type': 'application/json; charset=utf-8'}
[32mINFO    [0m root:logger.py:13 REQUEST BODY: None

[32mINFO    [0m root:logger.py:14 STATUS CODE: 200
[32mINFO    [0m root:logger.py:15 RESPONSE TIME: 157 ms

[32mINFO    [0m root:logger.py:16 RESPONSE HEADERS: {'Date': 'Thu, 20 Apr 2023 14:51:49 GMT', 'Content-Type': 'application/json; charset=utf-8', 'Transfer-Encoding': 'chunked', 'Connection': 'keep-alive', 'X-Powered-By': 'Express', 'Access-Control-Allow-Origin': '*', 'Etag': 'W/"3e4-2RLXvr5wTg9YQ6aH95CkYoFNuO8"', 'Via': '1.1 vegur', 'Cache-Control': 'max-age=14400', 'CF-Cache-Status': 'HIT', 'Age': '29', 'Report-To': '{"endpoints":[{"url":"https:\\/\\/a.nel.cloudflare.com\\/report\\/v3?s=RJqt6XEqvAcjTBa38OOTXENTGOOeR%2F1FG3OL6%2BR5QnK17VQUl3CA9DZzXJjNVZSzp1qBo7Av0n2cpgtckyACVtMYXbimlf4NGhIc4pcgtfIvYMBa70hcKWEvSw%3D%3D"}],"group":"cf-nel","max_age":604800}', 'NEL': '{"success_fraction":0,"report_to":"cf-nel","max_age":604800}', 'Vary': 'Accept-Encoding', 'Server': 'cloudflare', 'CF-RAY': '7bae351ff8860065-DME', 'Content-Encoding': 'gzip'}
[32mINFO    [0m root:logger.py:17 RESPONSE BODY: {"page":1,"per_page":6,"total":12,"total_pages":2,"data":[{"id":1,"email":"george.bluth@reqres.in","first_name":"George","last_name":"Bluth","avatar":"https://reqres.in/img/faces/1-image.jpg"},{"id":2,"email":"janet.weaver@reqres.in","first_name":"Janet","last_name":"Weaver","avatar":"https://reqres.in/img/faces/2-image.jpg"},{"id":3,"email":"emma.wong@reqres.in","first_name":"Emma","last_name":"Wong","avatar":"https://reqres.in/img/faces/3-image.jpg"},{"id":4,"email":"eve.holt@reqres.in","first_name":"Eve","last_name":"Holt","avatar":"https://reqres.in/img/faces/4-image.jpg"},{"id":5,"email":"charles.morris@reqres.in","first_name":"Charles","last_name":"Morris","avatar":"https://reqres.in/img/faces/5-image.jpg"},{"id":6,"email":"tracey.ramos@reqres.in","first_name":"Tracey","last_name":"Ramos","avatar":"https://reqres.in/img/faces/6-image.jpg"}],"support":{"url":"https://reqres.in/#support-heading","text":"To keep ReqRes free, contributions towards server costs are appreciated!"}}
.
.